{
   "version": "1.0",
   "name": "load FLP",
   "require": [
      "./metakernels.json",
      "./spacecraft_FLP.json",
      "./sensors/FLP_MICS.json",
      "./stations.json",
      "./targets/old/LONDON.json",
      "./targets/old/AALEN.json",
      "./targets/old/AREA_51.json",
      "./targets/old/LOS_ANGELES.json",
      "./targets/old/HOF.json",
      "./targets/old/HONG_KONG.json",
      "./targets/old/MUNICH.json",
      "./targets/old/MARKTSCHORGAST.json",
      "./targets/old/MILAN.json",
      "./targets/old/AACHEN.json",
      "./targets/old/SINGAPUR.json",
      "./targets/old/BOCHUM.json",
      "./targets/old/SYDNEY.json",
      "./targets/old/BEIJING.json",
      "./targets/old/HONOLULU.json",
      "./targets/old/BERLIN.json",
      "./targets/old/BAYREUTH.json",
      "./targets/old/BARCELONA.json",
      "./targets/old/LAS_VEGAS.json",
      "./targets/old/NEW_YORK.json",
      "./targets/old/MADRID.json",
      "./targets/old/SAN_FRANCISCO.json",
      "./targets/new/AUCKLAND.json"
   ]
}