Interval 1

From : 2018 MAR 20 23:41:47.039

To   : 2018 MAR 20 23:41:48.454



Interval 2

From : 2018 MAR 20 23:42:09.140

To   : 2018 MAR 20 23:42:11.436



Interval 3

From : 2018 MAR 20 23:42:13.270

To   : 2018 MAR 20 23:42:14.246



Interval 4

From : 2018 MAR 20 23:42:15.197

To   : 2018 MAR 20 23:42:16.412



Interval 5

From : 2018 MAR 21 01:16:22.468

To   : 2018 MAR 21 01:16:23.795



Interval 6

From : 2018 MAR 21 01:17:51.812

To   : 2018 MAR 21 01:17:53.413



Interval 7

From : 2018 MAR 21 01:17:55.083

To   : 2018 MAR 21 01:17:56.854



Interval 8

From : 2018 MAR 21 01:22:56.782

To   : 2018 MAR 21 01:22:57.013



Interval 9

From : 2018 MAR 21 01:23:13.874

To   : 2018 MAR 21 01:23:14.436



Interval 10

From : 2018 MAR 21 01:23:20.300

To   : 2018 MAR 21 01:23:21.436



Interval 11

From : 2018 MAR 21 01:23:23.379

To   : 2018 MAR 21 01:23:25.314



Interval 12

From : 2018 MAR 21 01:23:26.857

To   : 2018 MAR 21 01:23:29.413



Interval 13

From : 2018 MAR 21 01:23:40.481

To   : 2018 MAR 21 01:23:42.135



Interval 14

From : 2018 MAR 21 01:23:45.401

To   : 2018 MAR 21 01:23:46.596



Interval 15

From : 2018 MAR 21 01:23:47.690

To   : 2018 MAR 21 01:23:49.891



Interval 16

From : 2018 MAR 21 01:23:50.671

To   : 2018 MAR 21 01:23:53.098



Interval 17

From : 2018 MAR 21 01:23:54.985

To   : 2018 MAR 21 01:23:56.048



Interval 18

From : 2018 MAR 21 01:25:51.749

To   : 2018 MAR 21 01:25:53.762



Interval 19

From : 2018 MAR 21 11:59:37.881

To   : 2018 MAR 21 12:00:13.803



Interval 20

From : 2018 MAR 21 12:00:33.713

To   : 2018 MAR 21 12:01:00.535



Interval 21

From : 2018 MAR 21 12:01:10.762

To   : 2018 MAR 21 12:01:23.933



Interval 22

From : 2018 MAR 21 23:49:09.078

To   : 2018 MAR 21 23:49:10.771



Interval 23

From : 2018 MAR 21 23:49:31.392

To   : 2018 MAR 21 23:50:02.702



Interval 24

From : 2018 MAR 21 23:50:26.162

To   : 2018 MAR 21 23:50:34.508



Interval 25

From : 2018 MAR 21 23:51:25.967

To   : 2018 MAR 21 23:51:26.208



Interval 26

From : 2018 MAR 21 23:51:33.876

To   : 2018 MAR 21 23:51:40.091



Interval 27

From : 2018 MAR 21 23:51:44.258

To   : 2018 MAR 21 23:51:46.451



Interval 28

From : 2018 MAR 21 23:51:49.196

To   : 2018 MAR 21 23:51:50.090



Interval 29

From : 2018 MAR 22 12:09:25.169

To   : 2018 MAR 22 12:10:35.450



Interval 30

From : 2018 MAR 22 12:10:45.055

To   : 2018 MAR 22 12:11:09.012



Interval 31

From : 2018 MAR 22 23:58:50.406

To   : 2018 MAR 22 23:59:22.666



Interval 32

From : 2018 MAR 23 00:00:34.186

To   : 2018 MAR 23 00:01:02.118



Interval 33

From : 2018 MAR 23 00:01:03.725

To   : 2018 MAR 23 00:01:07.836



Interval 34

From : 2018 MAR 23 00:01:10.850

To   : 2018 MAR 23 00:01:12.571



Interval 35

From : 2018 MAR 23 00:01:13.089

To   : 2018 MAR 23 00:01:14.187



Interval 36

From : 2018 MAR 23 00:01:15.126

To   : 2018 MAR 23 00:01:18.739



Interval 37

From : 2018 MAR 23 12:19:22.749

To   : 2018 MAR 23 12:19:52.448



Interval 38

From : 2018 MAR 23 12:20:08.990

To   : 2018 MAR 23 12:20:45.137



Interval 39

From : 2018 MAR 23 12:21:17.333

To   : 2018 MAR 23 12:21:41.122



Interval 40

From : 2018 MAR 23 12:22:21.723

To   : 2018 MAR 23 12:22:38.604



Interval 41

From : 2018 MAR 23 12:23:24.976

To   : 2018 MAR 23 12:23:30.853



Interval 42

From : 2018 MAR 23 12:23:32.921

To   : 2018 MAR 23 12:23:36.708



Interval 43

From : 2018 MAR 23 12:24:28.474

To   : 2018 MAR 23 12:24:30.996



Interval 44

From : 2018 MAR 23 12:24:33.468

To   : 2018 MAR 23 12:24:34.915



Interval 45

From : 2018 MAR 23 12:25:28.020

To   : 2018 MAR 23 12:25:29.976



Interval 46

From : 2018 MAR 23 12:25:35.265

To   : 2018 MAR 23 12:25:36.544



Interval 47

From : 2018 MAR 23 12:28:29.934

To   : 2018 MAR 23 12:28:31.531



Interval 48

From : 2018 MAR 23 12:28:36.157

To   : 2018 MAR 23 12:28:37.531



Interval 49

From : 2018 MAR 23 12:29:29.979

To   : 2018 MAR 23 12:29:32.301



Interval 50

From : 2018 MAR 23 12:29:36.314

To   : 2018 MAR 23 12:29:39.141



Interval 51

From : 2018 MAR 23 12:30:27.437

To   : 2018 MAR 23 12:30:31.662



Interval 52

From : 2018 MAR 23 12:30:37.458

To   : 2018 MAR 23 12:30:43.260



Interval 53

From : 2018 MAR 23 12:31:32.604

To   : 2018 MAR 23 12:31:37.520



Interval 54

From : 2018 MAR 23 12:32:15.024

To   : 2018 MAR 23 12:32:26.340



Interval 55

From : 2018 MAR 23 12:32:47.646

To   : 2018 MAR 23 12:33:33.410



Interval 56

From : 2018 MAR 24 00:22:24.330

To   : 2018 MAR 24 00:22:25.907



Interval 57

From : 2018 MAR 24 00:22:26.721

To   : 2018 MAR 24 00:22:29.509



Interval 58

From : 2018 MAR 24 00:22:33.747

To   : 2018 MAR 24 00:22:37.774



Interval 59

From : 2018 MAR 24 00:23:18.705

To   : 2018 MAR 24 00:23:50.678



Interval 60

From : 2018 MAR 24 10:53:44.986

To   : 2018 MAR 24 10:53:46.195



Interval 61

From : 2018 MAR 24 10:55:42.437

To   : 2018 MAR 24 10:55:52.124



Interval 62

From : 2018 MAR 24 10:55:53.071

To   : 2018 MAR 24 10:55:56.509



Interval 63

From : 2018 MAR 24 10:55:57.496

To   : 2018 MAR 24 10:55:59.607



Interval 64

From : 2018 MAR 24 12:29:02.238

To   : 2018 MAR 24 12:29:29.405



Interval 65

From : 2018 MAR 24 12:30:04.425

To   : 2018 MAR 24 12:30:26.674



Interval 66

From : 2018 MAR 24 12:30:37.119

To   : 2018 MAR 24 12:30:49.147



Interval 67

From : 2018 MAR 25 00:17:37.569

To   : 2018 MAR 25 00:19:31.791



Interval 68

From : 2018 MAR 25 00:19:44.098

To   : 2018 MAR 25 00:20:02.294



Interval 69

From : 2018 MAR 25 00:20:14.506

To   : 2018 MAR 25 00:20:25.625



Interval 70

From : 2018 MAR 25 00:20:26.012

To   : 2018 MAR 25 00:20:29.409



Interval 71

From : 2018 MAR 25 00:20:30.145

To   : 2018 MAR 25 00:20:31.177



Interval 72

From : 2018 MAR 25 11:03:19.230

To   : 2018 MAR 25 11:04:26.415



Interval 73

From : 2018 MAR 25 11:04:47.011

To   : 2018 MAR 25 11:04:57.307



Interval 74

From : 2018 MAR 25 12:38:32.196

To   : 2018 MAR 25 12:38:46.042



Interval 75

From : 2018 MAR 25 12:39:17.533

To   : 2018 MAR 25 12:39:49.534



Interval 76

From : 2018 MAR 25 12:40:04.297

To   : 2018 MAR 25 12:40:45.686



Interval 77

From : 2018 MAR 26 00:28:13.941

To   : 2018 MAR 26 00:28:32.012



Interval 78

From : 2018 MAR 26 00:29:15.255

To   : 2018 MAR 26 00:29:25.956



Interval 79

From : 2018 MAR 26 00:29:57.622

To   : 2018 MAR 26 00:30:10.327



Interval 80

From : 2018 MAR 26 03:13:35.406

To   : 2018 MAR 26 03:13:36.552



Interval 81

From : 2018 MAR 26 11:12:39.228

To   : 2018 MAR 26 11:12:59.359



Interval 82

From : 2018 MAR 26 11:13:22.789

To   : 2018 MAR 26 11:13:33.333



Interval 83

From : 2018 MAR 26 11:14:25.509

To   : 2018 MAR 26 11:14:36.953



Interval 84

From : 2018 MAR 26 12:48:01.592

To   : 2018 MAR 26 12:49:09.861



Interval 85

From : 2018 MAR 26 12:49:50.566

To   : 2018 MAR 26 12:50:17.097



Interval 86

From : 2018 MAR 26 12:50:32.533

To   : 2018 MAR 26 12:50:45.072