{
   "version": "1.0",
   "name": "BOCHUM",
   "items": [
      {
         "name": "BOCHUM",
         "center": "Earth",
         "trajectory": {
            "type": "Spice",
            "target": "BOCHUM",
            "center": "Earth"
         }
      }
   ]
}